{
  "Name": "WFM",
  "BundleId": "com.replgroup.wfm",
  "VersionName": "1.21.12",
  "VersionNumber": "74",
  "Folders": [
    {
      "From": "ResourceThemes/{0}",
      "To": "Resources"
    },
    {
      "From": "AssetThemes/{0}",
      "To": "Assets/Theme"
    }
  ]
}