[
    {
      "Name":"Virgin Media Prod",
      "Address":"http://virginmedia-prod.repl-cloud.com/Retail",
		"ConsortiumAddress" : "http://replsvrvmapp1.repl-cloud.com:8087/api",
		"ConsortiumUsername" : "virginservice",
		"ConsortiumPassword" : "v1rg1np@ssw0RD"
    },
	{
      "Name":"Virgin Media Test",
      "Address":"http://virginmedia-nonprod.repl-cloud.com/Retail/",
		"ConsortiumAddress" : "http://replsvrvmapp2.repl-cloud.com:8087/api",
		"ConsortiumUsername" : "VirginUser",
		"ConsortiumPassword" : "virginpass"
    }
]