﻿{
	"TimeoutMinutes" : 120,
	"ShowSiteNumber" : false,
    "CanResetPassword" : true,
	"AlternativeScheduleView" : true,
	"ShowPlanningTab" : false,
	"ShowChangePassword" : true,
	"HideDefaultVarianceValues" : true,
	"CanEditSchedule" : false,
	"CanApproveOwnTimeOff" : false,
	"CheckForLockout" : false,
	"LockoutBundleOverride" : "com.replgroup.WFM-Digital",
	"DontGenerateWarnings" : true,
	"CanDeleteShifts" : false,
	"ShowDailyOverviewMenu" : true,
	"ShowStoreInNavBar" : false,
	"AllowPunchesForMeals" : false,
    "AllowPunchesForBreaks" : false,
	"CanEditOwnPunches" : false,
    "ShowFillUnfilledShifts" : false,
    "ShowUnfillOptions": true,
    "ShiftSwapOnDragAndDropEnabled" : true,
    "ShowCallOff":true,
    "TimeOffTypesOverridingBlackoutPeriod" : "Sick,Dependant Leave",
    "TotalHoursPerDayDivisor" : 8.0,
}
