[
	{
      	"Name":"Builders Warehouse Demo",
      	"Address":"http://services-useast.skytap.com:27846/retail",
    },
    {
        "Name":"Builders Warehouse Test",
        "Address":"https://repl-int-wapp02.repl-labs.com/Retail",
    }
]
