[
	{
        "Name":"Walmart SSO (Cert WM1)",
        "Address":"https://walmart-lfs-wfmr-b.jdadelivers.com/Retail",
        "SSOStart":"https://pfedcert.walmartone.com/idp/startSSO.ping?PartnerSpId=JDATestDL",
        "SendScheduleAudit":true,
        "UseCustomScheduleRequest":true
    },
    {
        "Name":"Walmart SSO Pen-Test (Cert WM1)",
        "Address":"https://np-walmart-us-wfmr-c.jdadelivers.com/Retail/",
        "SSOStart":"https://pfedcert.walmartone.com/idp/startSSO.ping?PartnerSpId=JDATestDL",
        "SendScheduleAudit":true,
        "UseCustomScheduleRequest":true
    },
	{
        "Name":"Walmart SSO (Prod WM1)",
        "Address":"https://walmart-wfmr-nhm-sso.jdadelivers.com/Retail",
        "SSOStart":"https://pfedprod.walmartone.com/idp/startSSO.ping?PartnerSpId=https%3A%2F%2Fsso-walmartus.jdadelivers.com",
        "SendScheduleAudit":true,
        "UseCustomScheduleRequest":true
    },
	{
		"Name":"Walmart Non-Prod",
		"Address":"https://np-walmart-us-wfmr-b.jdadelivers.com/Retail/",
		"SendScheduleAudit":true,
        "UseCustomScheduleRequest":true
	},
    {
		"Name":"Walmart Pen-Test",
		"Address":"https://np-walmart-us-wfmr-c.jdadelivers.com/Retail/",
		"SendScheduleAudit":true,
        "UseCustomScheduleRequest":true
	},
    {
		"Name":"Walmart Prod",
		"Address":"https://walmart-nhm-wfmr.jdadelivers.com/Retail",
		"SendScheduleAudit":true,
        "UseCustomScheduleRequest":true
	},
]
